{
    "Data": [226.0, 241.0, 64.0, 37.0, 31988.0, 5068641.0, 1050564.0, 655680.0, 753995.0, 116888.0, 23.0, 22.0, 19.0, 10.0, 14.0, 24.0],
    "Name": "L1Dist",
    "Overflow": 0.0,
    "Type": "Histo1d",
    "Underflow": 0.0,
    "x": {
        "AxisTitle": "L1Id",
        "Bins": 16,
        "High": 15.5,
        "Low": -0.5
    },
    "y": {
        "AxisTitle": "Hits"
    },
    "z": {
        "AxisTitle": "z"
    }
}