{
    "Data": [2.0, 6.0, 3.0, 9.0, 8.0, 11.0, 11.0, 10.0, 15.0, 12.0, 10.0, 16.0, 16.0, 22.0, 25.0, 45.0, 51.0, 66.0, 92.0, 124.0, 187.0, 321.0, 459.0, 612.0, 990.0, 1220.0, 1587.0, 1876.0, 2168.0, 2215.0, 2132.0, 2071.0, 1744.0, 1428.0, 1260.0, 1041.0, 790.0, 658.0, 423.0, 387.0, 281.0, 224.0, 196.0, 146.0, 121.0, 81.0, 76.0, 56.0, 62.0, 51.0, 36.0, 41.0, 23.0, 31.0, 16.0, 17.0, 10.0, 6.0, 7.0, 8.0, 12.0],
    "Name": "ThresholdDist-0",
    "Overflow": 53.0,
    "Type": "Histo1d",
    "Underflow": 50.0,
    "x": {
        "AxisTitle": "Threshold [e]",
        "Bins": 61,
        "High": 1725.0,
        "Low": 1115.0
    },
    "y": {
        "AxisTitle": "Number of Pixels"
    },
    "z": {
        "AxisTitle": "z"
    }
}