{
    "Data": [731.0, 245.0, 1.0, 3.0, 2.0, 11.0, 11.0, 26.0, 54.0, 132.0, 298.0, 698.0, 1260.0, 1990.0, 2599.0, 2916.0, 2654.0, 2328.0, 1853.0, 1374.0, 988.0, 793.0, 590.0, 488.0, 424.0, 357.0, 329.0, 258.0, 251.0, 234.0, 161.0, 174.0, 168.0, 143.0, 124.0, 80.0, 89.0, 86.0, 85.0, 79.0, 51.0, 42.0, 43.0, 50.0, 42.0, 47.0, 38.0, 26.0, 20.0, 26.0, 24.0, 24.0, 29.0, 15.0, 10.0, 12.0, 8.0, 13.0, 8.0],
    "Name": "NoiseDist-0",
    "Overflow": 112.0,
    "Type": "Histo1d",
    "Underflow": 0.0,
    "x": {
        "AxisTitle": "Noise [e]",
        "Bins": 59,
        "High": 296.0,
        "Low": -2.0
    },
    "y": {
        "AxisTitle": "Number of Pixels"
    },
    "z": {
        "AxisTitle": "z"
    }
}