{
    "Data": [118.0, 7386.0, 9455.0, 4171.0, 1602.0, 688.0, 429.0, 263.0, 199.0, 169.0, 111.0, 114.0, 80.0, 73.0, 52.0, 43.0, 42.0, 32.0, 24.0, 49.0, 66.0, 73.0, 88.0, 79.0, 76.0, 73.0, 65.0, 41.0, 37.0, 22.0, 5.0, 1.0, 1.0, 0.0, 0.0, 0.0, 0.0, 0.0, 0.0, 0.0, 0.0, 0.0, 0.0, 0.0, 0.0, 0.0, 0.0, 0.0, 0.0, 0.0, 0.0],
    "Name": "Chi2Dist-0",
    "Overflow": 0.0,
    "Type": "Histo1d",
    "Underflow": 0.0,
    "x": {
        "AxisTitle": "Fit Chi/ndf",
        "Bins": 51,
        "High": 2.5250000953674318,
        "Low": -0.02500000037252903
    },
    "y": {
        "AxisTitle": "Number of Pixels"
    },
    "z": {
        "AxisTitle": "z"
    }
}