{
    "Data": [0.0, 0.0, 0.0, 0.0, 0.0, 0.0, 0.0, 0.0, 0.0, 0.0, 0.0, 0.0, 0.0, 13.0, 301.0, 47.0, 47.0, 51.0, 57.0, 52.0, 18.0, 84.0, 60.0, 47.0, 44.0, 77.0, 200.0, 319.0, 369.0, 800.0, 861.0, 1076.0, 1354.0, 1106.0, 1479.0, 1101.0, 859.0, 968.0, 815.0, 639.0, 721.0, 519.0, 475.0, 495.0, 423.0, 529.0, 546.0, 473.0, 483.0, 521.0, 506.0, 468.0, 524.0, 488.0, 446.0, 356.0, 333.0, 339.0, 352.0, 292.0, 267.0, 280.0, 288.0, 225.0, 170.0, 149.0, 157.0, 158.0, 143.0, 113.0, 105.0, 114.0, 94.0, 84.0, 78.0, 84.0, 63.0, 64.0, 63.0, 55.0, 48.0, 51.0, 38.0, 55.0, 32.0, 23.0, 34.0, 24.0, 24.0, 30.0, 18.0, 22.0, 21.0, 11.0, 11.0, 13.0, 18.0, 9.0, 16.0, 9.0, 7.0, 8.0, 5.0, 10.0, 7.0, 6.0, 6.0, 10.0, 3.0, 7.0, 7.0, 8.0, 7.0, 6.0, 3.0, 3.0, 3.0, 8.0, 2.0, 2.0, 4.0, 3.0, 3.0, 4.0, 0.0, 3.0, 4.0, 4.0, 4.0, 3.0, 2.0, 1.0, 1.0, 2.0, 3.0, 0.0, 1.0, 8.0, 1.0, 2.0, 2.0, 1.0, 1.0, 1.0, 2.0, 3.0, 0.0, 1.0, 0.0, 0.0, 0.0, 2.0, 1.0, 1.0, 0.0, 1.0, 2.0, 0.0, 1.0, 0.0, 0.0, 1.0, 0.0, 0.0, 1.0, 1.0, 0.0, 0.0, 0.0, 0.0, 0.0, 0.0, 0.0, 0.0, 1.0, 0.0, 2.0, 1.0, 0.0, 0.0, 0.0, 0.0, 0.0, 0.0, 0.0, 0.0, 1.0, 0.0, 0.0, 0.0, 1.0, 0.0, 0.0, 0.0, 0.0, 0.0, 0.0, 0.0, 0.0, 0.0, 0.0],
    "Name": "TimePerFitDist-0",
    "Overflow": 28.0,
    "Type": "Histo1d",
    "Underflow": 0.0,
    "x": {
        "AxisTitle": "Fit Time [us]",
        "Bins": 201,
        "High": 401.0,
        "Low": -1.0
    },
    "y": {
        "AxisTitle": "Number of Pixels"
    },
    "z": {
        "AxisTitle": "z"
    }
}