{
    "Data": [0.0, 0.0, 6.0, 151.0, 904.0, 2159.0, 3258.0, 3811.0, 3648.0, 3094.0, 2400.0, 1685.0, 1157.0, 819.0, 525.0, 352.0, 188.0, 141.0, 92.0, 58.0, 38.0, 25.0, 20.0, 11.0, 9.0, 3.0, 6.0, 1.0, 1.0, 1.0, 2.0, 3.0, 2.0, 0.0, 0.0, 0.0, 0.0, 0.0, 0.0, 0.0, 1.0, 0.0, 0.0, 0.0, 0.0, 0.0, 0.0, 0.0, 0.0, 0.0, 0.0],
    "Name": "Chi2Dist-0",
    "Overflow": 0.0,
    "Type": "Histo1d",
    "Underflow": 0.0,
    "x": {
        "AxisTitle": "Fit Chi/ndf",
        "Bins": 51,
        "High": 2.5250000953674318,
        "Low": -0.02500000037252903
    },
    "y": {
        "AxisTitle": "Number of Pixels"
    },
    "z": {
        "AxisTitle": "z"
    }
}