{
    "Data": [19.0, 22.0, 235.0, 10.0, 20.0, 29.0, 13414.0, 2596100.0, 13.0, 20.0, 19.0, 9.0, 23.0, 31.0, 24.0, 14.0],
    "Name": "L1Dist",
    "Overflow": 0.0,
    "Type": "Histo1d",
    "Underflow": 0.0,
    "x": {
        "AxisTitle": "L1Id",
        "Bins": 16,
        "High": 15.5,
        "Low": -0.5
    },
    "y": {
        "AxisTitle": "Hits"
    },
    "z": {
        "AxisTitle": "z"
    }
}