{
    "Data": [0.0, 0.0, 0.0, 0.0, 57089.0, 0.0, 0.0, 0.0, 0.0, 0.0, 0.0, 0.0, 0.0, 2267.0, 0.0, 0.0, 0.0, 1525.0, 0.0, 0.0, 1121.0, 0.0, 857.0, 15.0, 720.0, 32.0, 611.0, 10.0, 579.0, 448.0, 515.0, 12.0, 457.0, 422.0, 398.0, 388.0, 322.0, 338.0, 291.0, 326.0, 539.0, 286.0, 555.0, 286.0, 540.0, 527.0, 728.0, 670.0, 670.0, 981.0, 1744.0, 43.0, 67.0, 46.0, 59.0, 43.0, 22.0, 44.0, 31.0, 33.0, 33.0, 19.0, 18.0, 15.0, 12.0, 13.0, 8.0, 9.0, 7.0, 2.0, 3.0, 0.0, 0.0, 1.0, 1.0, 0.0, 0.0, 0.0, 0.0, 0.0, 0.0, 0.0, 0.0, 0.0, 0.0, 0.0, 0.0, 0.0, 0.0, 0.0, 0.0, 1.0, 0.0, 0.0, 0.0, 0.0, 0.0, 0.0, 0.0, 0.0, 0.0],
    "Name": "SigmaTotDist-0",
    "Overflow": 1.0,
    "Type": "Histo1d",
    "Underflow": 0.0,
    "x": {
        "AxisTitle": "Sigma ToT [BC]",
        "Bins": 101,
        "High": 1.0499999523162842,
        "Low": -0.05000000074505806
    },
    "y": {
        "AxisTitle": "Number of Pixels"
    },
    "z": {
        "AxisTitle": "z"
    }
}