{
    "Data": [0.0, 0.0, 0.0, 0.0, 55722.0, 0.0, 0.0, 0.0, 0.0, 0.0, 0.0, 0.0, 0.0, 2375.0, 0.0, 0.0, 0.0, 1491.0, 0.0, 0.0, 1194.0, 0.0, 936.0, 8.0, 698.0, 59.0, 676.0, 19.0, 610.0, 506.0, 544.0, 13.0, 438.0, 437.0, 452.0, 419.0, 373.0, 367.0, 356.0, 346.0, 596.0, 311.0, 607.0, 323.0, 543.0, 538.0, 731.0, 720.0, 724.0, 1144.0, 1760.0, 91.0, 115.0, 71.0, 63.0, 75.0, 45.0, 41.0, 42.0, 30.0, 35.0, 26.0, 32.0, 22.0, 19.0, 14.0, 14.0, 10.0, 6.0, 8.0, 1.0, 0.0, 1.0, 0.0, 0.0, 0.0, 0.0, 0.0, 0.0, 0.0, 0.0, 0.0, 1.0, 0.0, 0.0, 0.0, 0.0, 0.0, 0.0, 0.0, 0.0, 0.0, 0.0, 0.0, 0.0, 0.0, 0.0, 0.0, 0.0, 0.0, 0.0],
    "Name": "SigmaTotDist-0",
    "Overflow": 2.0,
    "Type": "Histo1d",
    "Underflow": 0.0,
    "x": {
        "AxisTitle": "Sigma ToT [BC]",
        "Bins": 101,
        "High": 1.0499999523162842,
        "Low": -0.05000000074505806
    },
    "y": {
        "AxisTitle": "Number of Pixels"
    },
    "z": {
        "AxisTitle": "z"
    }
}