{
    "Data": [0.0, 0.0, 8.0, 118.0, 682.0, 1951.0, 3054.0, 3736.0, 3679.0, 3330.0, 2556.0, 1885.0, 1287.0, 820.0, 531.0, 302.0, 193.0, 141.0, 64.0, 48.0, 32.0, 23.0, 14.0, 9.0, 5.0, 5.0, 3.0, 0.0, 1.0, 1.0, 0.0, 0.0, 0.0, 1.0, 1.0, 0.0, 0.0, 1.0, 0.0, 2.0, 0.0, 3.0, 1.0, 10.0, 0.0, 0.0, 2.0, 2.0, 13.0, 1.0, 1.0],
    "Name": "Chi2Dist-0",
    "Overflow": 0.0,
    "Type": "Histo1d",
    "Underflow": 0.0,
    "x": {
        "AxisTitle": "Fit Chi/ndf",
        "Bins": 51,
        "High": 2.5250000953674318,
        "Low": -0.02500000037252903
    },
    "y": {
        "AxisTitle": "Number of Pixels"
    },
    "z": {
        "AxisTitle": "z"
    }
}