{
    "Data": [0.0, 0.0, 0.0, 0.0, 0.0, 0.0, 0.0, 0.0, 1.0, 1.0, 9.0, 9.0, 17.0, 37.0, 61.0, 112.0, 183.0, 315.0, 578.0, 892.0, 1230.0, 1526.0, 1853.0, 2011.0, 2028.0, 2046.0, 1943.0, 1767.0, 1714.0, 1376.0, 1144.0, 845.0, 703.0, 553.0, 410.0, 318.0, 218.0, 144.0, 123.0, 89.0, 65.0, 44.0, 29.0, 27.0, 15.0, 13.0, 9.0, 11.0, 2.0, 5.0, 10.0],
    "Name": "NoiseDist-0",
    "Overflow": 30.0,
    "Type": "Histo1d",
    "Underflow": 0.0,
    "x": {
        "AxisTitle": "Noise [e]",
        "Bins": 51,
        "High": 307.0,
        "Low": 52.0
    },
    "y": {
        "AxisTitle": "Number of Pixels"
    },
    "z": {
        "AxisTitle": "z"
    }
}