{
    "Data": [7007.0, 4932.0, 6486.0, 8367.0, 8973.0, 2621274.0, 1090816.0, 850112.0, 661400.0, 37936.0, 5704.0, 10730.0, 6890.0, 4315.0, 5981.0, 8258.0],
    "Name": "L1Dist",
    "Overflow": 0.0,
    "Type": "Histo1d",
    "Underflow": 0.0,
    "x": {
        "AxisTitle": "L1Id",
        "Bins": 16,
        "High": 15.5,
        "Low": -0.5
    },
    "y": {
        "AxisTitle": "Hits"
    },
    "z": {
        "AxisTitle": "z"
    }
}