{
    "Data": [0.0, 0.0, 0.0, 0.0, 62286.0, 0.0, 0.0, 0.0, 0.0, 0.0, 0.0, 0.0, 0.0, 2056.0, 0.0, 0.0, 0.0, 1142.0, 0.0, 0.0, 825.0, 0.0, 679.0, 0.0, 541.0, 1.0, 518.0, 1.0, 429.0, 400.0, 350.0, 0.0, 353.0, 285.0, 307.0, 274.0, 264.0, 244.0, 229.0, 254.0, 417.0, 193.0, 402.0, 188.0, 343.0, 362.0, 498.0, 489.0, 473.0, 726.0, 1268.0, 1.0, 0.0, 0.0, 0.0, 0.0, 0.0, 0.0, 0.0, 0.0, 0.0, 0.0, 0.0, 0.0, 0.0, 0.0, 0.0, 0.0, 0.0, 0.0, 0.0, 0.0, 0.0, 0.0, 0.0, 0.0, 0.0, 0.0, 0.0, 0.0, 0.0, 0.0, 0.0, 0.0, 0.0, 0.0, 0.0, 0.0, 0.0, 0.0, 0.0, 0.0, 0.0, 0.0, 0.0, 0.0, 0.0, 0.0, 0.0, 0.0, 0.0],
    "Name": "SigmaTotDist-0",
    "Overflow": 2.0,
    "Type": "Histo1d",
    "Underflow": 0.0,
    "x": {
        "AxisTitle": "Sigma ToT [BC]",
        "Bins": 101,
        "High": 1.0499999523162842,
        "Low": -0.05000000074505806
    },
    "y": {
        "AxisTitle": "Number of Pixels"
    },
    "z": {
        "AxisTitle": "z"
    }
}