{
    "Data": [0.0, 0.0, 0.0, 0.0, 0.0, 0.0, 0.0, 0.0, 0.0, 0.0, 0.0, 0.0, 0.0, 0.0, 86.0, 20.0, 31.0, 37.0, 28.0, 34.0, 10.0, 16.0, 46.0, 56.0, 37.0, 164.0, 389.0, 680.0, 797.0, 1112.0, 1841.0, 1716.0, 1607.0, 1881.0, 1734.0, 1172.0, 1012.0, 972.0, 751.0, 629.0, 503.0, 528.0, 480.0, 423.0, 383.0, 423.0, 498.0, 532.0, 385.0, 359.0, 403.0, 478.0, 434.0, 330.0, 259.0, 247.0, 271.0, 281.0, 198.0, 167.0, 151.0, 158.0, 136.0, 117.0, 92.0, 85.0, 81.0, 75.0, 68.0, 55.0, 59.0, 51.0, 51.0, 32.0, 29.0, 29.0, 23.0, 18.0, 20.0, 21.0, 14.0, 12.0, 15.0, 9.0, 8.0, 6.0, 0.0, 6.0, 6.0, 3.0, 6.0, 4.0, 1.0, 7.0, 7.0, 2.0, 2.0, 1.0, 4.0, 2.0, 1.0, 0.0, 0.0, 3.0, 1.0, 2.0, 0.0, 1.0, 0.0, 3.0, 0.0, 0.0, 1.0, 0.0, 0.0, 0.0, 0.0, 1.0, 0.0, 0.0, 0.0, 1.0, 0.0, 0.0, 0.0, 0.0, 0.0, 0.0, 0.0, 0.0, 0.0, 0.0, 0.0, 0.0, 0.0, 0.0, 0.0, 0.0, 0.0, 0.0, 0.0, 0.0, 0.0, 0.0, 0.0, 0.0, 0.0, 0.0, 0.0, 0.0, 0.0, 0.0, 0.0, 0.0, 0.0, 0.0, 0.0, 0.0, 0.0, 0.0, 0.0, 0.0, 0.0, 0.0, 0.0, 0.0, 0.0, 0.0, 0.0, 0.0, 0.0, 0.0, 0.0, 0.0, 0.0, 0.0, 0.0, 0.0, 0.0, 0.0, 0.0, 0.0, 0.0, 0.0, 0.0, 0.0, 0.0, 0.0, 0.0, 0.0, 0.0, 0.0, 0.0, 0.0, 0.0, 0.0, 0.0, 0.0, 0.0, 0.0, 0.0],
    "Name": "TimePerFitDist-0",
    "Overflow": 2.0,
    "Type": "Histo1d",
    "Underflow": 0.0,
    "x": {
        "AxisTitle": "Fit Time [us]",
        "Bins": 201,
        "High": 401.0,
        "Low": -1.0
    },
    "y": {
        "AxisTitle": "Number of Pixels"
    },
    "z": {
        "AxisTitle": "z"
    }
}