{
    "Data": [20.0, 4957.0, 12523.0, 6238.0, 1597.0, 320.0, 66.0, 7.0, 6.0, 6.0, 16.0, 15.0, 19.0, 13.0, 6.0, 8.0, 2.0, 2.0, 12.0, 11.0, 18.0, 12.0, 19.0, 21.0, 20.0, 11.0, 9.0, 8.0, 2.0, 1.0, 0.0, 0.0, 0.0, 0.0, 0.0, 0.0, 0.0, 0.0, 0.0, 0.0, 0.0, 0.0, 0.0, 0.0, 0.0, 0.0, 0.0, 0.0, 0.0, 0.0, 0.0],
    "Name": "Chi2Dist-0",
    "Overflow": 0.0,
    "Type": "Histo1d",
    "Underflow": 0.0,
    "x": {
        "AxisTitle": "Fit Chi/ndf",
        "Bins": 51,
        "High": 2.5250000953674318,
        "Low": -0.02500000037252903
    },
    "y": {
        "AxisTitle": "Number of Pixels"
    },
    "z": {
        "AxisTitle": "z"
    }
}