{
    "Data": [0.0, 0.0, 0.0, 1.0, 1.0, 1.0, 4.0, 6.0, 19.0, 57.0, 210.0, 487.0, 1055.0, 2001.0, 3040.0, 3991.0, 4206.0, 3749.0, 2826.0, 1849.0, 1037.0, 566.0, 279.0, 150.0, 76.0, 49.0, 31.0, 12.0, 11.0, 6.0, 6.0],
    "Name": "NoiseDist-0",
    "Overflow": 40.0,
    "Type": "Histo1d",
    "Underflow": 248.0,
    "x": {
        "AxisTitle": "Noise [e]",
        "Bins": 31,
        "High": 167.0,
        "Low": 12.0
    },
    "y": {
        "AxisTitle": "Number of Pixels"
    },
    "z": {
        "AxisTitle": "z"
    }
}