{
    "Data": [18.0, 4347.0, 11871.0, 6766.0, 2124.0, 489.0, 114.0, 27.0, 11.0, 11.0, 15.0, 26.0, 18.0, 9.0, 9.0, 5.0, 3.0, 6.0, 9.0, 7.0, 23.0, 19.0, 17.0, 27.0, 15.0, 15.0, 2.0, 8.0, 2.0, 1.0, 0.0, 0.0, 0.0, 0.0, 0.0, 0.0, 0.0, 0.0, 0.0, 0.0, 0.0, 0.0, 0.0, 0.0, 0.0, 0.0, 0.0, 0.0, 0.0, 0.0, 0.0],
    "Name": "Chi2Dist-0",
    "Overflow": 0.0,
    "Type": "Histo1d",
    "Underflow": 0.0,
    "x": {
        "AxisTitle": "Fit Chi/ndf",
        "Bins": 51,
        "High": 2.5250000953674318,
        "Low": -0.02500000037252903
    },
    "y": {
        "AxisTitle": "Number of Pixels"
    },
    "z": {
        "AxisTitle": "z"
    }
}