{
    "Data": [0.0, 2.0, 1.0, 3.0, 2.0, 1.0, 2.0, 4.0, 7.0, 7.0, 3.0, 3.0, 7.0, 5.0, 3.0, 8.0, 10.0, 9.0, 12.0, 8.0, 9.0, 11.0, 12.0, 9.0, 12.0, 23.0, 26.0, 24.0, 34.0, 49.0, 71.0, 76.0, 92.0, 139.0, 152.0, 184.0, 211.0, 287.0, 396.0, 409.0, 492.0, 614.0, 688.0, 794.0, 890.0, 1026.0, 1070.0, 1208.0, 1159.0, 1296.0, 1317.0, 1392.0, 1403.0, 1321.0, 1187.0, 1062.0, 968.0, 788.0, 751.0, 617.0, 547.0, 423.0, 342.0, 312.0, 205.0, 201.0, 155.0, 134.0, 112.0, 84.0, 73.0, 57.0, 58.0, 51.0, 34.0, 41.0, 32.0, 34.0, 38.0, 35.0, 33.0, 25.0, 30.0, 30.0, 26.0, 27.0, 25.0, 15.0, 21.0, 14.0, 19.0, 19.0, 16.0, 26.0, 14.0, 16.0, 18.0, 19.0, 17.0, 14.0, 13.0],
    "Name": "ThresholdDist-0",
    "Overflow": 76.0,
    "Type": "Histo1d",
    "Underflow": 37.0,
    "x": {
        "AxisTitle": "Threshold [e]",
        "Bins": 101,
        "High": 1915.0,
        "Low": 905.0
    },
    "y": {
        "AxisTitle": "Number of Pixels"
    },
    "z": {
        "AxisTitle": "z"
    }
}