{
    "Data": [0.0, 0.0, 0.0, 0.0, 60936.0, 0.0, 0.0, 0.0, 0.0, 0.0, 0.0, 0.0, 0.0, 2219.0, 0.0, 0.0, 0.0, 1309.0, 0.0, 0.0, 904.0, 0.0, 706.0, 0.0, 567.0, 5.0, 529.0, 4.0, 449.0, 412.0, 375.0, 0.0, 367.0, 320.0, 320.0, 297.0, 287.0, 285.0, 255.0, 265.0, 460.0, 219.0, 454.0, 214.0, 399.0, 399.0, 552.0, 551.0, 520.0, 865.0, 1353.0, 0.0, 0.0, 0.0, 0.0, 0.0, 0.0, 0.0, 0.0, 0.0, 0.0, 1.0, 0.0, 0.0, 0.0, 0.0, 0.0, 0.0, 0.0, 0.0, 0.0, 0.0, 0.0, 0.0, 0.0, 0.0, 0.0, 0.0, 0.0, 0.0, 0.0, 0.0, 0.0, 0.0, 0.0, 0.0, 0.0, 0.0, 0.0, 0.0, 0.0, 0.0, 0.0, 0.0, 0.0, 0.0, 0.0, 0.0, 0.0, 0.0, 0.0],
    "Name": "SigmaTotDist-0",
    "Overflow": 2.0,
    "Type": "Histo1d",
    "Underflow": 0.0,
    "x": {
        "AxisTitle": "Sigma ToT [BC]",
        "Bins": 101,
        "High": 1.0499999523162842,
        "Low": -0.05000000074505806
    },
    "y": {
        "AxisTitle": "Number of Pixels"
    },
    "z": {
        "AxisTitle": "z"
    }
}