{
    "Data": [1.0, 0.0, 0.0, 0.0, 702.0, 8136.0, 10165.0, 4092.0, 1112.0, 270.0, 69.0, 20.0, 7.0, 1.0, 2.0, 0.0],
    "Name": "MeanTotDist-0",
    "Overflow": 0.0,
    "Type": "Histo1d",
    "Underflow": 52223.0,
    "x": {
        "AxisTitle": "Mean ToT [BC]",
        "Bins": 16,
        "High": 16.5,
        "Low": 0.5
    },
    "y": {
        "AxisTitle": "Number of Pixels"
    },
    "z": {
        "AxisTitle": "z"
    }
}