{
    "connectivity": [{
            "chipType": "RD53A",
            "chips": [{
                    "config": "configs/20UPIM10021139/chip1.json.after",
                    "enable": 1,
                    "locked": 0,
                    "rx": 0,
                    "tx": 0
                }, {
                    "config": "configs/20UPIM10021139/chip2.json.after",
                    "enable": 1,
                    "locked": 0,
                    "rx": 1,
                    "tx": 0
                }, {
                    "config": "configs/20UPIM10021139/chip3.json.after",
                    "enable": 1,
                    "locked": 0,
                    "rx": 2,
                    "tx": 0
                }, {
                    "config": "configs/20UPIM10021139/chip4.json.after",
                    "enable": 1,
                    "locked": 0,
                    "rx": 3,
                    "tx": 0
                }]
        }],
    "ctrlCfg": {
        "ctrlCfg": {
            "cfg": {
                "cmdPeriod": 6.250000073038109e-9,
                "idle": {
                    "word": 1768515945
                },
                "pulse": {
                    "interval": 500,
                    "word": 1549575846
                },
                "rxActiveLanes": 7,
                "rxPolarity": 0,
                "specNum": 0,
                "spiConfig": 541200,
                "sync": {
                    "interval": 32,
                    "word": 2172551550
                },
                "trigConfig": null,
                "txPolarity": 0
            },
            "type": "spec"
        }
    },
    "ctrlStatus": {
        "channel_configuration": "4x4",
        "fe_chip_type": "RD53A/B",
        "firmware_identifier": "0x2030231",
        "firmware_version": "0x1493b73",
        "fmc_card_type": "Ohio Card (Display Port)",
        "fpga_card": "Trenz TEF1001_R2",
        "rx_speed": "640Mbps"
    },
    "dbCfg": {
        "QC": false,
        "auth": "default",
        "dbName": "localdb",
        "environment": ["vddd_voltage", "vddd_current", "vdda_voltage", "vdda_current", "vddcom_voltage", "vddcom_current", "hv_voltage", "hv_current", "temperature", "temperature_moduleNTC"],
        "hostIp": "192.168.1.1",
        "hostPort": "27017",
        "ssl": {
            "CAFile": "null",
            "PEMKeyFile": "null",
            "enabled": false
        },
        "tls": {
            "CAFile": "null",
            "CertificateKeyFile": "null",
            "enabled": false
        }
    },
    "exec": "-r configs/controller/specCfg-rd53a-4x3.json -c configs/connectivity/20UPIM10021139.json -s configs/scans/rd53a/lindiff_discbumpscan.json -p -W ",
    "finishTime": 1648174894,
    "runNumber": 1856,
    "siteCfg": {
        "institution": "daq-yarr-01"
    },
    "startTime": 1648174884,
    "stopwatch": {
        "analysis": 672,
        "config": 152,
        "processing": 0,
        "scan": 7920
    },
    "targetCharge": -1,
    "targetTot": -1,
    "testType": "lindiff_discbumpscan",
    "timestamp": "2022-03-24_19:21:24",
    "userCfg": {
        "description": "default",
        "institution": "BigYARRPC_Eth",
        "userName": "atlas"
    }
}